{
    "Logs": [
        {
            "Activity": "BlueStacks Main",
            "Source": "BlueStacks Main",
            "Status": 1,
            "Success": true,
            "Timestamp": "20240609T213524"
        },
        {
            "Activity": "BlueStacks Main",
            "Source": "BlueStacks Main",
            "Status": 0,
            "Success": true,
            "Timestamp": "20240609T213508"
        },
        {
            "Activity": "BlueStacks Main",
            "Source": "BlueStacks Main",
            "Status": 1,
            "Success": true,
            "Timestamp": "20240609T213450"
        },
        {
            "Activity": "BlueStacks Main",
            "Source": "BlueStacks Main",
            "Status": 0,
            "Success": true,
            "Timestamp": "20240609T213327"
        },
        {
            "Activity": "BlueStacks App Player",
            "Source": "BlueStacks App Player",
            "Status": 1,
            "Success": true,
            "Timestamp": "20240609T213310"
        },
        {
            "Activity": "BlueStacks App Player",
            "Source": "BlueStacks App Player",
            "Status": 0,
            "Success": true,
            "Timestamp": "20240609T213145"
        },
        {
            "Activity": "BlueStacks Main",
            "Source": "BlueStacks Main",
            "Status": 1,
            "Success": true,
            "Timestamp": "20240609T213134"
        },
        {
            "Activity": "BlueStacks Main",
            "Source": "BlueStacks Main",
            "Status": 0,
            "Success": true,
            "Timestamp": "20240609T213036"
        },
        {
            "Activity": "BlueStacks Main",
            "Source": "BlueStacks Main",
            "Status": 1,
            "Success": true,
            "Timestamp": "20240609T212632"
        },
        {
            "Activity": "BlueStacks Main",
            "Source": "BlueStacks Main",
            "Status": 0,
            "Success": true,
            "Timestamp": "20240609T212450"
        },
        {
            "Activity": "BlueStacks App Player",
            "Source": "BlueStacks App Player",
            "Status": 1,
            "Success": true,
            "Timestamp": "20240609T210122"
        },
        {
            "Activity": "BlueStacks App Player",
            "Source": "BlueStacks App Player",
            "Status": 0,
            "Success": true,
            "Timestamp": "20240609T210120"
        }
    ]
}
