{
    "HcsSystem" : {
        "Owner" : "Pie64_1_nxt",
        "SchemaVersion" : {
            "Major" : 2,
            "Minor" : 1
        },
        "VirtualMachine" : {
            "Chipset" : {
                "LinuxKernelDirect" : {
                    "KernelFilePath" : "D:\\Programs\\BlueStacks5\\BlueStacks_nxt\\Engine\\Pie64\\bzImage_hyperv",
                    "InitRdPath" : "D:\\Programs\\BlueStacks5\\BlueStacks_nxt\\Engine\\Pie64\\initrd_hyperv.img",
                    "KernelCmdLine" : "earlyprintk=serial, keep idle=nomwait printk.devkmsg=on vmalloc=160M nosmap nosmep nospectre_v2 nospec_store_bypass_disable l1tf=off console=ttyS0 bstandroid=pie64"
                }
            },
            "ComputeTopology" : {
                "Memory" : {
                    "SizeInMB" : 2048,
                    "Backing" : "Virtual"
                },
                "Processor" : {
                    "Count" : 2
                }
            },
            "Devices" : {
                "ComPorts" : {
                    "0" : {
                        "NamedPipe" : "\\\\.\\pipe\\bst_Pie64_1_serial_nxt",
                        "OptimizeForDebugger" : true
                    }
                },
                "Scsi" : {
                    "Boot Disk Controller" : {
                        "Attachments" : {
                            "0" : {
                                "Type" : "VirtualDisk",
                                "Path" : "D:\\Programs\\BlueStacks5\\BlueStacks_nxt\\Engine\\Pie64\\Root.vhd",
                                "ReadOnly" : true,
                                "CachingMode" : "Cached"
                            },
                            "1" : {
                                "Type" : "VirtualDisk",
                                "Path" : "D:\\Programs\\BlueStacks5\\BlueStacks_nxt\\Engine\\Pie64_1\\Data.vhdx",
                                "CachingMode" : "Cached"
                            }
                        }
                    }
                },
                "NetworkAdapters" : {
                    "default" : {
                        "EndpointId" : "6b1e9fe1-cc9d-4c58-b18c-08f6787353ac"
                    }
                },
                "VideoMonitor" : {

                },
                "Plan9" : {
                    "Shares" : [
                        {
                            "Name" : "Documents",
                            "Path" : "C:\\Users\\Su\\Documents",
                            "AccessName" : "Documents",
                            "Flags" : 44,
                            "Port" : 50000
                        },
                        {
                            "Name" : "Pictures",
                            "Path" : "C:\\Users\\Su\\Pictures",
                            "AccessName" : "Pictures",
                            "Flags" : 44,
                            "Port" : 50000
                        },
                        {
                            "Name" : "BstSharedFolder",
                            "Path" : "D:\\Programs\\BlueStacks5\\BlueStacks_nxt\\Engine\\UserData\\SharedFolder",
                            "AccessName" : "BstSharedFolder",
                            "Flags" : 44,
                            "Port" : 50000
                        }
                    ]
                },
                "FlexibleIov" : {
                    "83D594C9-3C6A-4A01-8ACF-3B719332CE70" : {
                        "EmulatorId" : "83D594C9-3C6A-4A01-8ACF-3B719332CE70",
                        "HostingModel" : "External",
                        "Configuration" : [
                            ""
                        ]
                    },
                    "66B3248B-C5F3-4C56-8B5B-A580263967ED" : {
                        "EmulatorId" : "66B3248B-C5F3-4C56-8B5B-A580263967ED",
                        "HostingModel" : "External",
                        "Configuration" : [
                            ""
                        ]
                    },
                    "167F5F70-C64C-4FE2-AA3B-870FDDB52F40" : {
                        "EmulatorId" : "167F5F70-C64C-4FE2-AA3B-870FDDB52F40",
                        "HostingModel" : "External",
                        "Configuration" : [
                            ""
                        ]
                    },
                    "24696D20-773F-456E-9B4A-0CFFD8610B4D" : {
                        "EmulatorId" : "24696D20-773F-456E-9B4A-0CFFD8610B4D",
                        "HostingModel" : "External",
                        "Configuration" : [
                            ""
                        ]
                    }
                },
                "Keyboard" : {

                }
            }
        },
        "ShouldTerminateOnLastHandleClosed" : true
    },
    "HcnNetwork" : {
        "ID" : "A79F78E2-A38C-4F71-BC8C-B93E134F9F24",
        "Name" : "BluestacksNxt",
        "Owner" : "BluestacksNxt",
        "Type" : "NAT"
    },
    "HcnEndpoint" : {
        "VirtualNetwork" : "A79F78E2-A38C-4F71-BC8C-B93E134F9F24",
        "Policies" : [
            {
                "Type" : "NAT",
                "Protocol" : "TCP",
                "InternalPort" : 5555
            }
        ]
    }
}
